fir.vcd
$date
   Tue Oct 24 12:56:20 2023
$end
$version
  2022.1
$end
$timescale
  1ps
$end
$scope module fir_tb $end
$var wire 1 ! awready $end
$var wire 1 " wready $end
$var reg 1 # awvalid $end
$var reg 12 $ awaddr [11:0] $end
$var reg 1 % wvalid $end
$var reg 32 & wdata [31:0] $end
$var wire 1 ' arready $end
$var reg 1 ( rready $end
$var reg 1 ) arvalid $end
$var reg 12 * araddr [11:0] $end
$var wire 1 + rvalid $end
$var wire 32 , rdata [31:0] $end
$var reg 1 - axis_clk $end
$var reg 1 . axis_rst_n $end
$var wire 4 / tap_WE [3:0] $end
$var wire 1 0 tap_EN $end
$var wire 32 1 tap_Di [31:0] $end
$var wire 12 2 tap_A [11:0] $end
$var wire 32 3 tap_Do [31:0] $end
$var wire 4 4 data_WE [3:0] $end
$var wire 1 5 data_EN $end
$var wire 32 6 data_Di [31:0] $end
$var wire 12 7 data_A [11:0] $end
$var wire 32 8 data_Do [31:0] $end
$var reg 1 9 ss_tvalid $end
$var reg 32 : ss_tdata [31:0] $end
$var reg 1 ; ss_tlast $end
$var wire 1 < ss_tready $end
$var reg 1 = sm_tready $end
$var wire 1 > sm_tvalid $end
$var wire 32 ? sm_tdata [31:0] $end
$var wire 1 @ sm_tlast $end
$var integer 32 A timeout [31:0] $end
$var reg 32 B data_length [31:0] $end
$var integer 32 C Din [31:0] $end
$var integer 32 D golden [31:0] $end
$var integer 32 E input_data [31:0] $end
$var integer 32 F golden_data [31:0] $end
$var integer 32 G m [31:0] $end
$var integer 32 H i [31:0] $end
$var reg 1 I error $end
$var reg 1 J error_coef $end
$var integer 32 K k [31:0] $end
$scope module fir_DUT $end
$var wire 1 ! awready $end
$var wire 1 " wready $end
$var wire 1 L awvalid $end
$var wire 12 M awaddr [11:0] $end
$var wire 1 N wvalid $end
$var wire 32 O wdata [31:0] $end
$var wire 1 ' arready $end
$var wire 1 P rready $end
$var wire 1 Q arvalid $end
$var wire 12 R araddr [11:0] $end
$var wire 1 + rvalid $end
$var wire 32 , rdata [31:0] $end
$var wire 1 S ss_tvalid $end
$var wire 32 T ss_tdata [31:0] $end
$var wire 1 U ss_tlast $end
$var wire 1 < ss_tready $end
$var wire 1 V sm_tready $end
$var wire 1 > sm_tvalid $end
$var wire 32 ? sm_tdata [31:0] $end
$var wire 1 @ sm_tlast $end
$var wire 4 / tap_WE [3:0] $end
$var wire 1 0 tap_EN $end
$var wire 32 1 tap_Di [31:0] $end
$var wire 12 2 tap_A [11:0] $end
$var wire 32 3 tap_Do [31:0] $end
$var wire 4 4 data_WE [3:0] $end
$var wire 1 5 data_EN $end
$var wire 32 6 data_Di [31:0] $end
$var wire 12 7 data_A [11:0] $end
$var wire 32 8 data_Do [31:0] $end
$var wire 1 W axis_clk $end
$var wire 1 X axis_rst_n $end
$var reg 1 Y awready_reg $end
$var reg 1 Z wready_reg $end
$var reg 1 [ arready_reg $end
$var reg 32 \ rdata_reg [31:0] $end
$var reg 1 ] rvalid_reg $end
$var reg 12 ^ tap_A_reg [11:0] $end
$var reg 4 _ tap_WE_reg [3:0] $end
$var reg 32 ` tap_Di_reg [31:0] $end
$var reg 1 a ap_start $end
$var reg 1 b ap_idle $end
$var reg 1 c ap_done $end
$var reg 4 d data_WE_reg [3:0] $end
$var reg 12 e data_A_reg [11:0] $end
$var reg 32 f data_Di_reg [31:0] $end
$var reg 1 g ss_tready_reg $end
$var reg 1 h sm_tvalid_reg $end
$var reg 1 i sm_tlast_reg $end
$var reg 32 j acc_reg [31:0] $end
$var reg 32 k fir_multi [31:0] $end
$var reg 1 l data_bram $end
$var reg 1 m fir_cal $end
$var reg 1 n last_flag $end
$upscope $end
$scope module tap_RAM $end
$var wire 1 o CLK $end
$var wire 4 / WE [3:0] $end
$var wire 1 0 EN $end
$var wire 32 1 Di [31:0] $end
$var wire 32 3 Do [31:0] $end
$var wire 12 2 A [11:0] $end
$var reg 12 p r_A [11:0] $end
$upscope $end
$scope module data_RAM $end
$var wire 1 q CLK $end
$var wire 4 4 WE [3:0] $end
$var wire 1 5 EN $end
$var wire 32 6 Di [31:0] $end
$var wire 32 8 Do [31:0] $end
$var wire 12 7 A [11:0] $end
$var reg 12 r r_A [11:0] $end
$upscope $end
$scope task config_write $end
$var reg 12 s addr [11:0] $end
$var reg 32 t data [31:0] $end
$upscope $end
$scope task config_read_check $end
$var reg 12 u addr [11:0] $end
$var reg 32 v exp_data [31:0] $end
$var reg 32 w mask [31:0] $end
$upscope $end
$scope task ss $end
$var reg 32 x in1 [31:0] $end
$upscope $end
$scope task sm $end
$var reg 32 y in2 [31:0] $end
$var reg 32 z pcnt [31:0] $end
$upscope $end
$upscope $end
$enddefinitions $end
#0
$dumpvars
0!
0"
0#
bx $
0%
bx &
0'
x(
x)
bx *
0+
b0 ,
0-
0.
b0 /
10
b0 1
b0 2
bx 3
b1111 4
15
b0 6
b0 7
bx 8
19
b1 :
0;
0<
1=
0>
b0 ?
0@
b11110100001001000000 A
b1001011000 B
b11111111111111111011000111100000 C
b11111111111111111011000111100001 D
b1 E
b1 F
b1001011000 G
b0 H
0I
0J
bx K
0L
bx M
0N
bx O
xP
xQ
bx R
1S
b1 T
0U
1V
0W
0X
0Y
0Z
0[
b0 \
0]
b0 ^
b0 _
b0 `
0a
1b
0c
b1111 d
b0 e
b0 f
0g
0h
0i
b0 j
b0 k
0l
0m
0n
0o
bx p
0q
bx r
b10000 s
b1001011000 t
bx u
bx v
bx w
b1 x
bx y
bx z
$end
#5000
1#
b10000 $
1%
b1001011000 &
1-
bx 3
b0 8
b11110100001000111111 A
1L
b10000 M
1N
b1001011000 O
1W
0Y
0Z
0[
0]
b0 ^
b0 _
b0 `
0a
1b
0c
b1111 d
b0 e
b0 f
0g
0h
0i
b0 j
b0 k
0l
0m
0n
1o
b0 p
1q
b0 r
#10000
0-
0W
0o
0q
#15000
1!
1"
1-
1.
b1001011000 1
b111111110000 2
b100 7
b11110100001000111110 A
1W
1X
1Y
1Z
0[
0]
b111111110000 ^
b0 _
b1001011000 `
0a
0c
b1111 d
b100 e
0i
b0 j
1o
b0 p
1q
b0 r
#20000
0-
0W
0o
0q
#25000
0!
0"
0#
0%
1-
b0 1
bx 3
b1000 7
b0 8
b11110100001000111101 A
b0 K
0L
0N
1W
0Y
0Z
0[
0]
b0 _
b0 `
0a
0c
b1111 d
b1000 e
0i
b0 j
1o
b111111110000 p
1q
b100 r
b100000 s
b0 t
#30000
0-
0W
0o
0q
#35000
1#
b100000 $
1%
b0 &
1-
b1100 7
b0 8
b11110100001000111100 A
1L
b100000 M
1N
b0 O
1W
0Y
0Z
0[
0]
b0 _
b0 `
0a
0c
b1111 d
b1100 e
0i
b0 j
1o
b111111110000 p
1q
b1000 r
#40000
0-
0W
0o
0q
#45000
1!
1"
1-
b1111 /
b0 2
b10000 7
b0 8
b11110100001000111011 A
1W
1Y
1Z
0[
0]
b0 ^
b1111 _
b0 `
0a
0c
b1111 d
b10000 e
0i
b0 j
1o
b111111110000 p
1q
b1100 r
#50000
0-
0W
0o
0q
#55000
0!
0"
0#
0%
1-
b0 /
b0 3
b10100 7
b0 8
b11110100001000111010 A
b1 K
0L
0N
1W
0Y
0Z
0[
b0 \
0]
b0 _
b0 `
0a
0c
b1111 d
b10100 e
0i
b0 j
1o
b0 p
1q
b10000 r
b100100 s
b11111111111111111111111111110110 t
#60000
0-
0W
0o
0q
#65000
1#
b100100 $
1%
b11111111111111111111111111110110 &
1-
b11000 7
b0 8
b11110100001000111001 A
1L
b100100 M
1N
b11111111111111111111111111110110 O
1W
0Y
0Z
0[
0]
b0 _
b0 `
0a
0c
b1111 d
b11000 e
0i
b0 j
1o
b0 p
1q
b10100 r
#70000
0-
0W
0o
0q
#75000
1!
1"
1-
b1111 /
b11111111111111111111111111110110 1
b100 2
b11100 7
b0 8
b11110100001000111000 A
1W
1Y
1Z
0[
0]
b100 ^
b1111 _
b11111111111111111111111111110110 `
0a
0c
b1111 d
b11100 e
0i
b0 j
1o
b0 p
1q
b11000 r
#80000
0-
0W
0o
0q
#85000
0!
0"
0#
0%
1-
b0 /
b0 1
b11111111111111111111111111110110 3
b100000 7
b0 8
b11110100001000110111 A
b10 K
0L
0N
1W
0Y
0Z
0[
b0 \
0]
b0 _
b0 `
0a
0c
b1111 d
b100000 e
0i
b0 j
1o
b100 p
1q
b11100 r
b101000 s
b11111111111111111111111111110111 t
#90000
0-
0W
0o
0q
#95000
1#
b101000 $
1%
b11111111111111111111111111110111 &
1-
b100100 7
b0 8
b11110100001000110110 A
1L
b101000 M
1N
b11111111111111111111111111110111 O
1W
0Y
0Z
0[
0]
b0 _
b0 `
0a
0c
b1111 d
b100100 e
0i
b0 j
1o
b100 p
1q
b100000 r
#100000
0-
0W
0o
0q
#105000
1!
1"
1-
b1111 /
b11111111111111111111111111110111 1
b1000 2
b101000 7
b0 8
b11110100001000110101 A
1W
1Y
1Z
0[
0]
b1000 ^
b1111 _
b11111111111111111111111111110111 `
0a
0c
b1111 d
b101000 e
0i
b0 j
1o
b100 p
1q
b100100 r
#110000
0-
0W
0o
0q
#115000
0!
0"
0#
0%
1-
b0 /
b0 1
b11111111111111111111111111110111 3
b0 7
b0 8
b11110100001000110100 A
b11 K
0L
0N
1W
0Y
0Z
0[
b0 \
0]
b0 _
b0 `
0a
0c
b1111 d
b0 e
0i
b0 j
1l
1o
b1000 p
1q
b101000 r
b101100 s
b10111 t
#120000
0-
0W
0o
0q
#125000
1#
b101100 $
1%
b10111 &
1-
b0 8
b11110100001000110011 A
1L
b101100 M
1N
b10111 O
1W
0Y
0Z
0[
0]
b0 _
b0 `
0a
0c
b1111 d
0i
b0 j
1o
b1000 p
1q
b0 r
#130000
0-
0W
0o
0q
#135000
1!
1"
1-
b1111 /
b10111 1
b1100 2
b11110100001000110010 A
1W
1Y
1Z
0[
0]
b1100 ^
b1111 _
b10111 `
0a
0c
b1111 d
0i
b0 j
1o
b1000 p
1q
b0 r
#140000
0-
0W
0o
0q
#145000
0!
0"
0#
0%
1-
b0 /
b0 1
b10111 3
b11110100001000110001 A
b100 K
0L
0N
1W
0Y
0Z
0[
b0 \
0]
b0 _
b0 `
0a
0c
b1111 d
0i
b0 j
1o
b1100 p
1q
b0 r
b110000 s
b111000 t
#150000
0-
0W
0o
0q
#155000
1#
b110000 $
1%
b111000 &
1-
b11110100001000110000 A
1L
b110000 M
1N
b111000 O
1W
0Y
0Z
0[
0]
b0 _
b0 `
0a
0c
b1111 d
0i
b0 j
1o
b1100 p
1q
b0 r
#160000
0-
0W
0o
0q
#165000
1!
1"
1-
b1111 /
b111000 1
b10000 2
b11110100001000101111 A
1W
1Y
1Z
0[
0]
b10000 ^
b1111 _
b111000 `
0a
0c
b1111 d
0i
b0 j
1o
b1100 p
1q
b0 r
#170000
0-
0W
0o
0q
#175000
0!
0"
0#
0%
1-
b0 /
b0 1
b111000 3
b11110100001000101110 A
b101 K
0L
0N
1W
0Y
0Z
0[
b0 \
0]
b0 _
b0 `
0a
0c
b1111 d
0i
b0 j
1o
b10000 p
1q
b0 r
b110100 s
b111111 t
#180000
0-
0W
0o
0q
#185000
1#
b110100 $
1%
b111111 &
1-
b11110100001000101101 A
1L
b110100 M
1N
b111111 O
1W
0Y
0Z
0[
0]
b0 _
b0 `
0a
0c
b1111 d
0i
b0 j
1o
b10000 p
1q
b0 r
#190000
0-
0W
0o
0q
#195000
1!
1"
1-
b1111 /
b111111 1
b10100 2
b11110100001000101100 A
1W
1Y
1Z
0[
0]
b10100 ^
b1111 _
b111111 `
0a
0c
b1111 d
0i
b0 j
1o
b10000 p
1q
b0 r
#200000
0-
0W
0o
0q
#205000
0!
0"
0#
0%
1-
b0 /
b0 1
b111111 3
b11110100001000101011 A
b110 K
0L
0N
1W
0Y
0Z
0[
b0 \
0]
b0 _
b0 `
0a
0c
b1111 d
0i
b0 j
1o
b10100 p
1q
b0 r
b111000 s
b111000 t
#210000
0-
0W
0o
0q
#215000
1#
b111000 $
1%
b111000 &
1-
b11110100001000101010 A
1L
b111000 M
1N
b111000 O
1W
0Y
0Z
0[
0]
b0 _
b0 `
0a
0c
b1111 d
0i
b0 j
1o
b10100 p
1q
b0 r
#220000
0-
0W
0o
0q
#225000
1!
1"
1-
b1111 /
b111000 1
b11000 2
b11110100001000101001 A
1W
1Y
1Z
0[
0]
b11000 ^
b1111 _
b111000 `
0a
0c
b1111 d
0i
b0 j
1o
b10100 p
1q
b0 r
#230000
0-
0W
0o
0q
#235000
0!
0"
0#
0%
1-
b0 /
b0 1
b111000 3
b11110100001000101000 A
b111 K
0L
0N
1W
0Y
0Z
0[
b0 \
0]
b0 _
b0 `
0a
0c
b1111 d
0i
b0 j
1o
b11000 p
1q
b0 r
b111100 s
b10111 t
#240000
0-
0W
0o
0q
#245000
1#
b111100 $
1%
b10111 &
1-
b11110100001000100111 A
1L
b111100 M
1N
b10111 O
1W
0Y
0Z
0[
0]
b0 _
b0 `
0a
0c
b1111 d
0i
b0 j
1o
b11000 p
1q
b0 r
#250000
0-
0W
0o
0q
#255000
1!
1"
1-
b1111 /
b10111 1
b11100 2
b11110100001000100110 A
1W
1Y
1Z
0[
0]
b11100 ^
b1111 _
b10111 `
0a
0c
b1111 d
0i
b0 j
1o
b11000 p
1q
b0 r
#260000
0-
0W
0o
0q
#265000
0!
0"
0#
0%
1-
b0 /
b0 1
b10111 3
b11110100001000100101 A
b1000 K
0L
0N
1W
0Y
0Z
0[
b0 \
0]
b0 _
b0 `
0a
0c
b1111 d
0i
b0 j
1o
b11100 p
1q
b0 r
b1000000 s
b11111111111111111111111111110111 t
#270000
0-
0W
0o
0q
#275000
1#
b1000000 $
1%
b11111111111111111111111111110111 &
1-
b11110100001000100100 A
1L
b1000000 M
1N
b11111111111111111111111111110111 O
1W
0Y
0Z
0[
0]
b0 _
b0 `
0a
0c
b1111 d
0i
b0 j
1o
b11100 p
1q
b0 r
#280000
0-
0W
0o
0q
#285000
1!
1"
1-
b1111 /
b11111111111111111111111111110111 1
b100000 2
b11110100001000100011 A
1W
1Y
1Z
0[
0]
b100000 ^
b1111 _
b11111111111111111111111111110111 `
0a
0c
b1111 d
0i
b0 j
1o
b11100 p
1q
b0 r
#290000
0-
0W
0o
0q
#295000
0!
0"
0#
0%
1-
b0 /
b0 1
b11111111111111111111111111110111 3
b11110100001000100010 A
b1001 K
0L
0N
1W
0Y
0Z
0[
b0 \
0]
b0 _
b0 `
0a
0c
b1111 d
0i
b0 j
1o
b100000 p
1q
b0 r
b1000100 s
b11111111111111111111111111110110 t
#300000
0-
0W
0o
0q
#305000
1#
b1000100 $
1%
b11111111111111111111111111110110 &
1-
b11110100001000100001 A
1L
b1000100 M
1N
b11111111111111111111111111110110 O
1W
0Y
0Z
0[
0]
b0 _
b0 `
0a
0c
b1111 d
0i
b0 j
1o
b100000 p
1q
b0 r
#310000
0-
0W
0o
0q
#315000
1!
1"
1-
b1111 /
b11111111111111111111111111110110 1
b100100 2
b11110100001000100000 A
1W
1Y
1Z
0[
0]
b100100 ^
b1111 _
b11111111111111111111111111110110 `
0a
0c
b1111 d
0i
b0 j
1o
b100000 p
1q
b0 r
#320000
0-
0W
0o
0q
#325000
0!
0"
0#
0%
1-
b0 /
b0 1
b11111111111111111111111111110110 3
b11110100001000011111 A
b1010 K
0L
0N
1W
0Y
0Z
0[
b0 \
0]
b0 _
b0 `
0a
0c
b1111 d
0i
b0 j
1o
b100100 p
1q
b0 r
b1001000 s
b0 t
#330000
0-
0W
0o
0q
#335000
1#
b1001000 $
1%
b0 &
1-
b11110100001000011110 A
1L
b1001000 M
1N
b0 O
1W
0Y
0Z
0[
0]
b0 _
b0 `
0a
0c
b1111 d
0i
b0 j
1o
b100100 p
1q
b0 r
#340000
0-
0W
0o
0q
#345000
1!
1"
1-
b1111 /
b101000 2
b11110100001000011101 A
1W
1Y
1Z
0[
0]
b101000 ^
b1111 _
b0 `
0a
0c
b1111 d
0i
b0 j
1o
b100100 p
1q
b0 r
#350000
0-
0W
0o
0q
#355000
0!
0"
0#
0%
0)
1-
b0 /
b0 3
b11110100001000011100 A
b0 K
0L
0N
0Q
1W
0Y
0Z
0[
b0 \
0]
b0 _
b0 `
0a
0c
b1111 d
0i
b0 j
1o
b101000 p
1q
b0 r
b100000 u
b0 v
b11111111111111111111111111111111 w
#360000
0-
0W
0o
0q
#365000
1(
1)
b100000 *
1-
b11110100001000011011 A
1P
1Q
b100000 R
1W
0Y
0Z
0[
b0 \
0]
b0 _
b0 `
0a
0c
b1111 d
0i
b0 j
1o
b101000 p
1q
b0 r
#370000
0-
0W
0o
0q
#375000
1'
1-
b0 2
b11110100001000011010 A
1W
0Y
0Z
1[
0]
b0 ^
b0 _
b0 `
0a
0c
b1111 d
0i
b0 j
1o
b101000 p
1q
b0 r
#380000
0-
0W
0o
0q
#385000
0'
1+
1-
b0 3
b11110100001000011001 A
1W
0Y
0Z
0[
b0 \
1]
b0 _
b0 `
0a
0c
b1111 d
0i
b0 j
1o
b0 p
1q
b0 r
#390000
0-
0W
0o
0q
#395000
0(
0)
0+
1-
b11110100001000011000 A
b1 K
0P
0Q
1W
0Y
0Z
0[
b0 \
0]
b0 _
b0 `
0a
0c
b1111 d
0i
b0 j
1o
b0 p
1q
b0 r
b100100 u
b11111111111111111111111111110110 v
b11111111111111111111111111111111 w
#400000
0-
0W
0o
0q
#405000
1(
1)
b100100 *
1-
b11110100001000010111 A
1P
1Q
b100100 R
1W
0Y
0Z
0[
b0 \
0]
b0 _
b0 `
0a
0c
b1111 d
0i
b0 j
1o
b0 p
1q
b0 r
#410000
0-
0W
0o
0q
#415000
1'
1-
b100 2
b11110100001000010110 A
1W
0Y
0Z
1[
0]
b100 ^
b0 _
b0 `
0a
0c
b1111 d
0i
b0 j
1o
b0 p
1q
b0 r
#420000
0-
0W
0o
0q
#425000
0'
1+
b11111111111111111111111111110110 ,
1-
b11111111111111111111111111110110 3
b11110100001000010101 A
1W
0Y
0Z
0[
b11111111111111111111111111110110 \
1]
b0 _
b0 `
0a
0c
b1111 d
0i
b0 j
1o
b100 p
1q
b0 r
#430000
0-
0W
0o
0q
#435000
0(
0)
0+
b0 ,
1-
b11110100001000010100 A
b10 K
0P
0Q
1W
0Y
0Z
0[
b0 \
0]
b0 _
b0 `
0a
0c
b1111 d
0i
b0 j
1o
b100 p
1q
b0 r
b101000 u
b11111111111111111111111111110111 v
b11111111111111111111111111111111 w
#440000
0-
0W
0o
0q
#445000
1(
1)
b101000 *
1-
b11110100001000010011 A
1P
1Q
b101000 R
1W
0Y
0Z
0[
b0 \
0]
b0 _
b0 `
0a
0c
b1111 d
0i
b0 j
1o
b100 p
1q
b0 r
#450000
0-
0W
0o
0q
#455000
1'
1-
b1000 2
b11110100001000010010 A
1W
0Y
0Z
1[
0]
b1000 ^
b0 _
b0 `
0a
0c
b1111 d
0i
b0 j
1o
b100 p
1q
b0 r
#460000
0-
0W
0o
0q
#465000
0'
1+
b11111111111111111111111111110111 ,
1-
b11111111111111111111111111110111 3
b11110100001000010001 A
1W
0Y
0Z
0[
b11111111111111111111111111110111 \
1]
b0 _
b0 `
0a
0c
b1111 d
0i
b0 j
1o
b1000 p
1q
b0 r
#470000
0-
0W
0o
0q
#475000
0(
0)
0+
b0 ,
1-
b11110100001000010000 A
b11 K
0P
0Q
1W
0Y
0Z
0[
b0 \
0]
b0 _
b0 `
0a
0c
b1111 d
0i
b0 j
1o
b1000 p
1q
b0 r
b101100 u
b10111 v
b11111111111111111111111111111111 w
#480000
0-
0W
0o
0q
#485000
1(
1)
b101100 *
1-
b11110100001000001111 A
1P
1Q
b101100 R
1W
0Y
0Z
0[
b0 \
0]
b0 _
b0 `
0a
0c
b1111 d
0i
b0 j
1o
b1000 p
1q
b0 r
#490000
0-
0W
0o
0q
#495000
1'
1-
b1100 2
b11110100001000001110 A
1W
0Y
0Z
1[
0]
b1100 ^
b0 _
b0 `
0a
0c
b1111 d
0i
b0 j
1o
b1000 p
1q
b0 r
#500000
0-
0W
0o
0q
#505000
0'
1+
b10111 ,
1-
b10111 3
b11110100001000001101 A
1W
0Y
0Z
0[
b10111 \
1]
b0 _
b0 `
0a
0c
b1111 d
0i
b0 j
1o
b1100 p
1q
b0 r
#510000
0-
0W
0o
0q
#515000
0(
0)
0+
b0 ,
1-
b11110100001000001100 A
b100 K
0P
0Q
1W
0Y
0Z
0[
b0 \
0]
b0 _
b0 `
0a
0c
b1111 d
0i
b0 j
1o
b1100 p
1q
b0 r
b110000 u
b111000 v
b11111111111111111111111111111111 w
#520000
0-
0W
0o
0q
#525000
1(
1)
b110000 *
1-
b11110100001000001011 A
1P
1Q
b110000 R
1W
0Y
0Z
0[
b0 \
0]
b0 _
b0 `
0a
0c
b1111 d
0i
b0 j
1o
b1100 p
1q
b0 r
#530000
0-
0W
0o
0q
#535000
1'
1-
b10000 2
b11110100001000001010 A
1W
0Y
0Z
1[
0]
b10000 ^
b0 _
b0 `
0a
0c
b1111 d
0i
b0 j
1o
b1100 p
1q
b0 r
#540000
0-
0W
0o
0q
#545000
0'
1+
b111000 ,
1-
b111000 3
b11110100001000001001 A
1W
0Y
0Z
0[
b111000 \
1]
b0 _
b0 `
0a
0c
b1111 d
0i
b0 j
1o
b10000 p
1q
b0 r
#550000
0-
0W
0o
0q
#555000
0(
0)
0+
b0 ,
1-
b11110100001000001000 A
b101 K
0P
0Q
1W
0Y
0Z
0[
b0 \
0]
b0 _
b0 `
0a
0c
b1111 d
0i
b0 j
1o
b10000 p
1q
b0 r
b110100 u
b111111 v
b11111111111111111111111111111111 w
#560000
0-
0W
0o
0q
#565000
1(
1)
b110100 *
1-
b11110100001000000111 A
1P
1Q
b110100 R
1W
0Y
0Z
0[
b0 \
0]
b0 _
b0 `
0a
0c
b1111 d
0i
b0 j
1o
b10000 p
1q
b0 r
#570000
0-
0W
0o
0q
#575000
1'
1-
b10100 2
b11110100001000000110 A
1W
0Y
0Z
1[
0]
b10100 ^
b0 _
b0 `
0a
0c
b1111 d
0i
b0 j
1o
b10000 p
1q
b0 r
#580000
0-
0W
0o
0q
#585000
0'
1+
b111111 ,
1-
b111111 3
b11110100001000000101 A
1W
0Y
0Z
0[
b111111 \
1]
b0 _
b0 `
0a
0c
b1111 d
0i
b0 j
1o
b10100 p
1q
b0 r
#590000
0-
0W
0o
0q
#595000
0(
0)
0+
b0 ,
1-
b11110100001000000100 A
b110 K
0P
0Q
1W
0Y
0Z
0[
b0 \
0]
b0 _
b0 `
0a
0c
b1111 d
0i
b0 j
1o
b10100 p
1q
b0 r
b111000 u
b111000 v
b11111111111111111111111111111111 w
#600000
0-
0W
0o
0q
#605000
1(
1)
b111000 *
1-
b11110100001000000011 A
1P
1Q
b111000 R
1W
0Y
0Z
0[
b0 \
0]
b0 _
b0 `
0a
0c
b1111 d
0i
b0 j
1o
b10100 p
1q
b0 r
#610000
0-
0W
0o
0q
#615000
1'
1-
b11000 2
b11110100001000000010 A
1W
0Y
0Z
1[
0]
b11000 ^
b0 _
b0 `
0a
0c
b1111 d
0i
b0 j
1o
b10100 p
1q
b0 r
#620000
0-
0W
0o
0q
#625000
0'
1+
b111000 ,
1-
b111000 3
b11110100001000000001 A
1W
0Y
0Z
0[
b111000 \
1]
b0 _
b0 `
0a
0c
b1111 d
0i
b0 j
1o
b11000 p
1q
b0 r
#630000
0-
0W
0o
0q
#635000
0(
0)
0+
b0 ,
1-
b11110100001000000000 A
b111 K
0P
0Q
1W
0Y
0Z
0[
b0 \
0]
b0 _
b0 `
0a
0c
b1111 d
0i
b0 j
1o
b11000 p
1q
b0 r
b111100 u
b10111 v
b11111111111111111111111111111111 w
#640000
0-
0W
0o
0q
#645000
1(
1)
b111100 *
1-
b11110100000111111111 A
1P
1Q
b111100 R
1W
0Y
0Z
0[
b0 \
0]
b0 _
b0 `
0a
0c
b1111 d
0i
b0 j
1o
b11000 p
1q
b0 r
#650000
0-
0W
0o
0q
#655000
1'
1-
b11100 2
b11110100000111111110 A
1W
0Y
0Z
1[
0]
b11100 ^
b0 _
b0 `
0a
0c
b1111 d
0i
b0 j
1o
b11000 p
1q
b0 r
#660000
0-
0W
0o
0q
#665000
0'
1+
b10111 ,
1-
b10111 3
b11110100000111111101 A
1W
0Y
0Z
0[
b10111 \
1]
b0 _
b0 `
0a
0c
b1111 d
0i
b0 j
1o
b11100 p
1q
b0 r
#670000
0-
0W
0o
0q
#675000
0(
0)
0+
b0 ,
1-
b11110100000111111100 A
b1000 K
0P
0Q
1W
0Y
0Z
0[
b0 \
0]
b0 _
b0 `
0a
0c
b1111 d
0i
b0 j
1o
b11100 p
1q
b0 r
b1000000 u
b11111111111111111111111111110111 v
b11111111111111111111111111111111 w
#680000
0-
0W
0o
0q
#685000
1(
1)
b1000000 *
1-
b11110100000111111011 A
1P
1Q
b1000000 R
1W
0Y
0Z
0[
b0 \
0]
b0 _
b0 `
0a
0c
b1111 d
0i
b0 j
1o
b11100 p
1q
b0 r
#690000
0-
0W
0o
0q
#695000
1'
1-
b100000 2
b11110100000111111010 A
1W
0Y
0Z
1[
0]
b100000 ^
b0 _
b0 `
0a
0c
b1111 d
0i
b0 j
1o
b11100 p
1q
b0 r
#700000
0-
0W
0o
0q
#705000
0'
1+
b11111111111111111111111111110111 ,
1-
b11111111111111111111111111110111 3
b11110100000111111001 A
1W
0Y
0Z
0[
b11111111111111111111111111110111 \
1]
b0 _
b0 `
0a
0c
b1111 d
0i
b0 j
1o
b100000 p
1q
b0 r
#710000
0-
0W
0o
0q
#715000
0(
0)
0+
b0 ,
1-
b11110100000111111000 A
b1001 K
0P
0Q
1W
0Y
0Z
0[
b0 \
0]
b0 _
b0 `
0a
0c
b1111 d
0i
b0 j
1o
b100000 p
1q
b0 r
b1000100 u
b11111111111111111111111111110110 v
b11111111111111111111111111111111 w
#720000
0-
0W
0o
0q
#725000
1(
1)
b1000100 *
1-
b11110100000111110111 A
1P
1Q
b1000100 R
1W
0Y
0Z
0[
b0 \
0]
b0 _
b0 `
0a
0c
b1111 d
0i
b0 j
1o
b100000 p
1q
b0 r
#730000
0-
0W
0o
0q
#735000
1'
1-
b100100 2
b11110100000111110110 A
1W
0Y
0Z
1[
0]
b100100 ^
b0 _
b0 `
0a
0c
b1111 d
0i
b0 j
1o
b100000 p
1q
b0 r
#740000
0-
0W
0o
0q
#745000
0'
1+
b11111111111111111111111111110110 ,
1-
b11111111111111111111111111110110 3
b11110100000111110101 A
1W
0Y
0Z
0[
b11111111111111111111111111110110 \
1]
b0 _
b0 `
0a
0c
b1111 d
0i
b0 j
1o
b100100 p
1q
b0 r
#750000
0-
0W
0o
0q
#755000
0(
0)
0+
b0 ,
1-
b11110100000111110100 A
b1010 K
0P
0Q
1W
0Y
0Z
0[
b0 \
0]
b0 _
b0 `
0a
0c
b1111 d
0i
b0 j
1o
b100100 p
1q
b0 r
b1001000 u
b0 v
b11111111111111111111111111111111 w
#760000
0-
0W
0o
0q
#765000
1(
1)
b1001000 *
1-
b11110100000111110011 A
1P
1Q
b1001000 R
1W
0Y
0Z
0[
b0 \
0]
b0 _
b0 `
0a
0c
b1111 d
0i
b0 j
1o
b100100 p
1q
b0 r
#770000
0-
0W
0o
0q
#775000
1'
1-
b101000 2
b11110100000111110010 A
1W
0Y
0Z
1[
0]
b101000 ^
b0 _
b0 `
0a
0c
b1111 d
0i
b0 j
1o
b100100 p
1q
b0 r
#780000
0-
0W
0o
0q
#785000
0'
1+
1-
b0 3
b11110100000111110001 A
1W
0Y
0Z
0[
b0 \
1]
b0 _
b0 `
0a
0c
b1111 d
0i
b0 j
1o
b101000 p
1q
b0 r
#790000
0-
0W
0o
0q
#795000
0(
0)
0+
1-
b11110100000111110000 A
b1011 K
0P
0Q
1W
0Y
0Z
0[
b0 \
0]
b0 _
b0 `
0a
0c
b1111 d
0i
b0 j
1o
b101000 p
1q
b0 r
#800000
0-
0W
0o
0q
#805000
0#
0%
1-
b11110100000111101111 A
1W
0Y
0Z
0[
0]
b0 _
b0 `
0a
0c
b1111 d
0i
b0 j
1o
b101000 p
1q
b0 r
b0 s
b1 t
#810000
0-
0W
0o
0q
#815000
1#
b0 $
1%
b1 &
1-
b11110100000111101110 A
1L
b0 M
1N
b1 O
1W
0Y
0Z
0[
0]
b0 _
b0 `
0a
0c
b1111 d
0i
b0 j
1o
b101000 p
1q
b0 r
#820000
0-
0W
0o
0q
#825000
1!
1"
1-
b0 2
b11110100000111101101 A
1W
1Y
1Z
0[
b0 \
0]
b0 ^
b0 _
b0 `
1a
0b
0c
b1111 d
0i
b0 j
1o
b101000 p
1q
b0 r
#830000
0-
0W
0o
0q
#835000
0!
0"
0#
0%
1-
b0 3
1<
b11110100000111101100 A
0L
0N
1W
0Y
0Z
0[
b0 \
0]
b0 _
b0 `
0a
0c
b1111 d
1g
0i
b0 j
1o
b0 p
1q
b0 r
#840000
0-
0W
0o
0q
#845000
1-
b1 6
19
b10 :
0<
b11110100000111101011 A
b1 H
b10 T
1W
0Y
0Z
0[
0]
b0 _
b0 `
0a
0c
b1111 d
b1 f
0g
0h
0i
b0 j
1m
1o
b0 p
1q
b0 r
b10 x
#850000
0-
0W
0o
0q
#855000
1-
b100 2
b0 4
b100 7
b1 8
b11110100000111101010 A
1W
0Y
0Z
0[
0]
b100 ^
b0 _
b0 `
0a
0c
b0 d
b100 e
0i
b0 j
b0 k
1o
b0 p
1q
b0 r
#860000
0-
0W
0o
0q
